\relax 
\providecommand\hyper@newdestlabel[2]{}
\providecommand\HyperFirstAtBeginDocument{\AtBeginDocument}
\HyperFirstAtBeginDocument{\ifx\hyper@anchor\@undefined
\global\let\oldcontentsline\contentsline
\gdef\contentsline#1#2#3#4{\oldcontentsline{#1}{#2}{#3}}
\global\let\oldnewlabel\newlabel
\gdef\newlabel#1#2{\newlabelxx{#1}#2}
\gdef\newlabelxx#1#2#3#4#5#6{\oldnewlabel{#1}{{#2}{#3}}}
\AtEndDocument{\ifx\hyper@anchor\@undefined
\let\contentsline\oldcontentsline
\let\newlabel\oldnewlabel
\fi}
\fi}
\global\let\hyper@last\relax 
\gdef\HyperFirstAtBeginDocument#1{#1}
\providecommand\HyField@AuxAddToFields[1]{}
\providecommand\HyField@AuxAddToCoFields[2]{}
\citation{zoya}
\citation{standing}
\citation{emotions}
\citation{Isola2014}
\@writefile{lof}{\contentsline {figure}{\numberline {1}{\ignorespaces \textbf  {Visualizations produced by the proposed GANalyze framework}. The middle columns represent generated images serving as the original seed. The originals are then modified to be characterized more (right) or less (left) by a given property of interest (memorability, aesthetics, or emotional valence). The images' respective property scores are presented in their top left corner.}}{1}{figure.1}\protected@file@percent }
\newlabel{fig:teaser}{{1}{1}{\textbf {Visualizations produced by the proposed GANalyze framework}. The middle columns represent generated images serving as the original seed. The originals are then modified to be characterized more (right) or less (left) by a given property of interest (memorability, aesthetics, or emotional valence). The images' respective property scores are presented in their top left corner}{figure.1}{}}
\citation{Isola2014}
\citation{Khosla_2015_ICCV}
\citation{goodfellow}
\citation{Khosla_2015_ICCV}
\citation{Isola2014}
\citation{BigGAN}
\citation{goodfellow}
\citation{stylegan}
\citation{BigGAN}
\citation{sagan}
\citation{proggan}
\citation{BigGAN}
\citation{Zhu_2017_ICCV}
\citation{mathieu2015deep}
\citation{graspgan}
\citation{zhou2018}
\citation{bau2017}
\citation{objectdetectors}
\citation{Khosla_2015_ICCV}
\citation{Khosla_2015_ICCV}
\@writefile{toc}{\contentsline {section}{\numberline {1}Introduction}{2}{section.1}\protected@file@percent }
\@writefile{toc}{\contentsline {subsection}{\numberline {1.1}Related work}{2}{subsection.1.1}\protected@file@percent }
\citation{Khosla_2013_ICCV}
\citation{sidorov}
\citation{deepstyle}
\citation{BigGAN}
\citation{Imagenet}
\citation{Khosla_2015_ICCV}
\citation{stylegan}
\@writefile{toc}{\contentsline {section}{\numberline {2}Model}{3}{section.2}\protected@file@percent }
\@writefile{toc}{\contentsline {subsection}{\numberline {2.1}Formulation}{3}{subsection.2.1}\protected@file@percent }
\@writefile{toc}{\contentsline {subsection}{\numberline {2.2}Implementation}{3}{subsection.2.2}\protected@file@percent }
\newlabel{implementation}{{2.2}{3}{Implementation}{subsection.2.2}{}}
\@writefile{lof}{\contentsline {figure}{\numberline {2}{\ignorespaces \textbf  {Schematic of the model}. The model learns how to transform a $\mathbf  {z}$ vector such that when fed to a Generator, the resulting image's property of interest changes. The transformation is achieved by the \emph  {Transformer}, who moves the $\mathbf  {z}$ vector along a learned direction, $\mathbf  {\theta }$, in the Generator's latent space. The property of interest (e.g., memorability) is predicted by an \emph  {Assessor module} (e.g., MemNet). Finally, $\alpha $ acts as knob to set the degree of change one wants to achieve in the Assessor value (e.g., MemNet score). It tells the \emph  {Transformer} how far exactly to move along $\mathbf  {\theta }$.}}{3}{figure.2}\protected@file@percent }
\newlabel{fig:model}{{2}{3}{\textbf {Schematic of the model}. The model learns how to transform a $\mathbf {z}$ vector such that when fed to a Generator, the resulting image's property of interest changes. The transformation is achieved by the \emph {Transformer}, who moves the $\mathbf {z}$ vector along a learned direction, $\mathbf {\theta }$, in the Generator's latent space. The property of interest (e.g., memorability) is predicted by an \emph {Assessor module} (e.g., MemNet). Finally, $\alpha $ acts as knob to set the degree of change one wants to achieve in the Assessor value (e.g., MemNet score). It tells the \emph {Transformer} how far exactly to move along $\mathbf {\theta }$}{figure.2}{}}
\citation{colorfulness}
\citation{maskrcnn}
\citation{massa2018mrcnn}
\@writefile{toc}{\contentsline {section}{\numberline {3}Experiments}{4}{section.3}\protected@file@percent }
\newlabel{experiments}{{3}{4}{Experiments}{section.3}{}}
\@writefile{toc}{\contentsline {subsection}{\numberline {3.1}Model validation}{4}{subsection.3.1}\protected@file@percent }
\@writefile{toc}{\contentsline {subsection}{\numberline {3.2}Emerging factors}{4}{subsection.3.2}\protected@file@percent }
\newlabel{Emerging factors}{{3.2}{4}{Emerging factors}{subsection.3.2}{}}
\@writefile{lof}{\contentsline {figure}{\numberline {3}{\ignorespaces \textbf  {Model results}. A) Graph shows the mean MemNet score across the images in every $\alpha $ condition. Our model successfully learned how to modify a GAN image to decrease (negative $\alpha $) or increase (positive $\alpha $) its MemNet score. B) List of emerging factors potentially underlying the effect observed in (A), and graph of how they change in function of $\alpha $. The factors emerged from visualizations generated by the GANalyze framework (examples shown in Figures\nobreakspace  {}\ref  {fig:examples1}, \nobreakspace  {}\ref  {fig:sup_examples_mem_1}, and \nobreakspace  {}\ref  {fig:sup_examples_mem_2}). Emerging factor scores were first normalized and then averaged per $\alpha $ condition.}}{4}{figure.3}\protected@file@percent }
\newlabel{fig:memorability_graph}{{3}{4}{\textbf {Model results}. A) Graph shows the mean MemNet score across the images in every $\alpha $ condition. Our model successfully learned how to modify a GAN image to decrease (negative $\alpha $) or increase (positive $\alpha $) its MemNet score. B) List of emerging factors potentially underlying the effect observed in (A), and graph of how they change in function of $\alpha $. The factors emerged from visualizations generated by the GANalyze framework (examples shown in Figures~\ref {fig:examples1}, ~\ref {fig:sup_examples_mem_1}, and ~\ref {fig:sup_examples_mem_2}). Emerging factor scores were first normalized and then averaged per $\alpha $ condition}{figure.3}{}}
\@writefile{lof}{\contentsline {figure}{\numberline {4}{\ignorespaces \textbf  {Examples of generated images} along the memorability dimension. The middle column represents $G(\mathbf  {z},\mathbf  {y})$, the generated image serving as the original seed to create a series of clone images more or less memorable.}}{5}{figure.4}\protected@file@percent }
\newlabel{fig:examples1}{{4}{5}{\textbf {Examples of generated images} along the memorability dimension. The middle column represents $G(\mathbf {z},\mathbf {y})$, the generated image serving as the original seed to create a series of clone images more or less memorable}{figure.4}{}}
\citation{FID}
\citation{IS}
\@writefile{toc}{\contentsline {subsection}{\numberline {3.3}Realness}{6}{subsection.3.3}\protected@file@percent }
\newlabel{Realness}{{3.3}{6}{Realness}{subsection.3.3}{}}
\@writefile{toc}{\contentsline {subsubsection}{\numberline {3.3.1}Automatic measures}{6}{subsubsection.3.3.1}\protected@file@percent }
\@writefile{toc}{\contentsline {subsubsection}{\numberline {3.3.2}Human measure}{6}{subsubsection.3.3.2}\protected@file@percent }
\@writefile{lof}{\contentsline {figure}{\numberline {5}{\ignorespaces \textbf  {Realness measures as a function of $\alpha $}. A) Two popular automatic measures for evaluating the realness of a set of GAN images. Note that lower FID values indicate higher realness. B) Human fakeness discriminability, measured as the mean proportion correct in a 2AFC-task in which AMT workers had to discriminate GAN-images (fake) from real photographs.}}{6}{figure.5}\protected@file@percent }
\newlabel{fig:2afc}{{5}{6}{\textbf {Realness measures as a function of $\alpha $}. A) Two popular automatic measures for evaluating the realness of a set of GAN images. Note that lower FID values indicate higher realness. B) Human fakeness discriminability, measured as the mean proportion correct in a 2AFC-task in which AMT workers had to discriminate GAN-images (fake) from real photographs}{figure.5}{}}
\citation{Isola2014}
\citation{Khosla_2015_ICCV}
\@writefile{lof}{\contentsline {figure}{\numberline {6}{\ignorespaces \textbf  {Schematic of the visual memory game}. Each image is shown for 600 ms, with a blank interstimulus interval of 800 ms. Workers are asked to respond whenever they recognize a repeat of a previously shown image. For a correct response, the frame around the image briefly turns green. A red frame, on the other hand, indicates a mistake.}}{7}{figure.6}\protected@file@percent }
\newlabel{fig:memory_game}{{6}{7}{\textbf {Schematic of the visual memory game}. Each image is shown for 600 ms, with a blank interstimulus interval of 800 ms. Workers are asked to respond whenever they recognize a repeat of a previously shown image. For a correct response, the frame around the image briefly turns green. A red frame, on the other hand, indicates a mistake}{figure.6}{}}
\@writefile{toc}{\contentsline {subsection}{\numberline {3.4}Do our changes causally affect memory?}{7}{subsection.3.4}\protected@file@percent }
\newlabel{memory}{{3.4}{7}{Do our changes causally affect memory?}{subsection.3.4}{}}
\@writefile{lof}{\contentsline {figure}{\numberline {7}{\ignorespaces \textbf  {Human memory performance} for images modified according to different Assessors: A) MemNet, B) Object size and C) AestheticsNet. Performance is measured as the hit rate across all images and workers in the memory game for each property.}}{7}{figure.7}\protected@file@percent }
\newlabel{fig:experiments_plot}{{7}{7}{\textbf {Human memory performance} for images modified according to different Assessors: A) MemNet, B) Object size and C) AestheticsNet. Performance is measured as the hit rate across all images and workers in the memory game for each property}{figure.7}{}}
\citation{tjur}
\citation{tjur}
\citation{Kong_et_al_2016}
\citation{resnet}
\citation{monfort2019moments}
\citation{emotion6}
\@writefile{lot}{\contentsline {table}{\numberline {1}{\ignorespaces  \relax \fontsize  {9}{10}\selectfont  \abovedisplayskip 6\p@ plus1.5\p@ minus4\p@ \abovedisplayshortskip \z@ plus2\p@ \belowdisplayskip \abovedisplayskip \belowdisplayshortskip 3\p@ plus2\p@ minus2\p@ {\textbf  {Relation between emerging factors and human memory performance.} We show the output of logistic mixed-effects regressions. From left to right: the regression weight, the confidence interval (CI) for that weight, the $p$-value for statistical significance, and Tjur's coefficient of discrimination (D), being the regression model's goodness of fit \cite  {tjur}. The emerging factor values were normalized before running the regression models.} }}{8}{table.1}\protected@file@percent }
\newlabel{table:emerging_factors}{{3.4.1}{8}{Emerging factors}{table.1}{}}
\@writefile{toc}{\contentsline {subsubsection}{\numberline {3.4.1}Emerging factors}{8}{subsubsection.3.4.1}\protected@file@percent }
\@writefile{toc}{\contentsline {section}{\numberline {4}Other properties}{8}{section.4}\protected@file@percent }
\newlabel{other}{{4}{8}{Other properties}{section.4}{}}
\@writefile{lof}{\contentsline {figure}{\numberline {8}{\ignorespaces \textbf  {Model results for additional Assessors}. A) Graph shows the mean Object size Assessor score across images in every $\alpha $ condition. A different set of $\alpha $ values was chosen to qualitatively match the degree object size changes achieved by the model trained with the MemNet Assessor. B) Graph shows the mean AestheticsNet score across the images in every $\alpha $ condition. C) Graph shows the mean EmoNet score across the images in every $\alpha $ condition}}{9}{figure.8}\protected@file@percent }
\newlabel{fig:aesthetic_validation}{{8}{9}{\textbf {Model results for additional Assessors}. A) Graph shows the mean Object size Assessor score across images in every $\alpha $ condition. A different set of $\alpha $ values was chosen to qualitatively match the degree object size changes achieved by the model trained with the MemNet Assessor. B) Graph shows the mean AestheticsNet score across the images in every $\alpha $ condition. C) Graph shows the mean EmoNet score across the images in every $\alpha $ condition}{figure.8}{}}
\@writefile{lof}{\contentsline {figure}{\numberline {9}{\ignorespaces \textbf  {Examples of generated images} along the aesthetics dimension (left) and the emotional valence dimension (right). Each middle column represents $G(\mathbf  {z},\mathbf  {y})$, the generated image serving as the original seed to create a series of clone images scoring higher or lower on the respective dimension according to the Assessor. The images' Assessor scores are presented in their top left corner.}}{9}{figure.9}\protected@file@percent }
\newlabel{fig:examples_aes1}{{9}{9}{\textbf {Examples of generated images} along the aesthetics dimension (left) and the emotional valence dimension (right). Each middle column represents $G(\mathbf {z},\mathbf {y})$, the generated image serving as the original seed to create a series of clone images scoring higher or lower on the respective dimension according to the Assessor. The images' Assessor scores are presented in their top left corner}{figure.9}{}}
\citation{BigGAN}
\citation{Imagenet}
\citation{washington_post}
\citation{technology_review}
\citation{hill}
\@writefile{lof}{\contentsline {figure}{\numberline {10}{\ignorespaces \textbf  {Comparison of examples generated according to different Assessors.} The top row represents $G(\mathbf  {z},\mathbf  {y})$, the generated image serving as the original seed to create a series of images with a higher or lower Assessor value. The respective Assessor values are indicated in the top left corner. Note that for object size, we used a different $\alpha $ range: \{-0.8,0.8\}.}}{10}{figure.10}\protected@file@percent }
\newlabel{fig:comparison}{{10}{10}{\textbf {Comparison of examples generated according to different Assessors.} The top row represents $G(\mathbf {z},\mathbf {y})$, the generated image serving as the original seed to create a series of images with a higher or lower Assessor value. The respective Assessor values are indicated in the top left corner. Note that for object size, we used a different $\alpha $ range: \{-0.8,0.8\}}{figure.10}{}}
\@writefile{toc}{\contentsline {section}{\numberline {5}Conclusion}{10}{section.5}\protected@file@percent }
\bibstyle{unsrt}
\bibdata{references}
\bibcite{zoya}{1}
\bibcite{standing}{2}
\bibcite{emotions}{3}
\bibcite{Isola2014}{4}
\bibcite{Khosla_2015_ICCV}{5}
\bibcite{goodfellow}{6}
\bibcite{BigGAN}{7}
\bibcite{stylegan}{8}
\bibcite{sagan}{9}
\bibcite{proggan}{10}
\bibcite{Zhu_2017_ICCV}{11}
\bibcite{mathieu2015deep}{12}
\bibcite{graspgan}{13}
\bibcite{zhou2018}{14}
\bibcite{bau2017}{15}
\bibcite{objectdetectors}{16}
\@writefile{toc}{\contentsline {section}{\numberline {6}Acknowledgments}{11}{section.6}\protected@file@percent }
\bibcite{Khosla_2013_ICCV}{17}
\bibcite{sidorov}{18}
\bibcite{deepstyle}{19}
\bibcite{Imagenet}{20}
\bibcite{colorfulness}{21}
\bibcite{maskrcnn}{22}
\bibcite{massa2018mrcnn}{23}
\bibcite{FID}{24}
\bibcite{IS}{25}
\bibcite{tjur}{26}
\bibcite{Kong_et_al_2016}{27}
\bibcite{resnet}{28}
\bibcite{monfort2019moments}{29}
\bibcite{emotion6}{30}
\bibcite{washington_post}{31}
\bibcite{technology_review}{32}
\bibcite{hill}{33}
\@writefile{lof}{\contentsline {figure}{\numberline {S1}{\ignorespaces \textbf  {Real images sorted on their MemNet score.} As opposed to GANalyze, this is a non-parametric way of visualizing what it looks like for images to become more memorable.}}{13}{figure.1}\protected@file@percent }
\newlabel{fig:nonparametric}{{S1}{13}{\textbf {Real images sorted on their MemNet score.} As opposed to GANalyze, this is a non-parametric way of visualizing what it looks like for images to become more memorable}{figure.1}{}}
\@writefile{lof}{\contentsline {figure}{\numberline {S2}{\ignorespaces \textbf  {More examples of generated images} along the memorability dimension. The middle column represents $G(\mathbf  {z},\mathbf  {y})$, the generated image serving as the original seed to create a series of clone images more or less memorable.}}{14}{figure.2}\protected@file@percent }
\newlabel{fig:sup_examples_mem_1}{{S2}{14}{\textbf {More examples of generated images} along the memorability dimension. The middle column represents $G(\mathbf {z},\mathbf {y})$, the generated image serving as the original seed to create a series of clone images more or less memorable}{figure.2}{}}
\@writefile{lof}{\contentsline {figure}{\numberline {S3}{\ignorespaces \textbf  {More examples of generated images} along the memorability dimension. The middle column represents $G(\mathbf  {z},\mathbf  {y})$, the generated image serving as the original seed to create a series of clone images more or less memorable.}}{15}{figure.3}\protected@file@percent }
\newlabel{fig:sup_examples_mem_2}{{S3}{15}{\textbf {More examples of generated images} along the memorability dimension. The middle column represents $G(\mathbf {z},\mathbf {y})$, the generated image serving as the original seed to create a series of clone images more or less memorable}{figure.3}{}}
\@writefile{lof}{\contentsline {figure}{\numberline {S4}{\ignorespaces \textbf  {More examples of generated images} along the aesthetics dimension. The middle column represents $G(\mathbf  {z},\mathbf  {y})$, the generated image serving as the original seed to create a series of clone images more or less aesthetic.}}{16}{figure.4}\protected@file@percent }
\newlabel{fig:sup_examples_aes_1}{{S4}{16}{\textbf {More examples of generated images} along the aesthetics dimension. The middle column represents $G(\mathbf {z},\mathbf {y})$, the generated image serving as the original seed to create a series of clone images more or less aesthetic}{figure.4}{}}
\@writefile{lof}{\contentsline {figure}{\numberline {S5}{\ignorespaces \textbf  {More examples of generated images} along the emotional valence dimension. The middle column represents $G(\mathbf  {z},\mathbf  {y})$, the generated image serving as the original seed to create a series of clone images higher or lower in emotional valence.}}{17}{figure.5}\protected@file@percent }
\newlabel{fig:sup_examples_emo_1}{{S5}{17}{\textbf {More examples of generated images} along the emotional valence dimension. The middle column represents $G(\mathbf {z},\mathbf {y})$, the generated image serving as the original seed to create a series of clone images higher or lower in emotional valence}{figure.5}{}}
