\BOOKMARK [1][-]{section.1}{Introduction}{}% 1
\BOOKMARK [2][-]{subsection.1.1}{Related work}{section.1}% 2
\BOOKMARK [1][-]{section.2}{Model}{}% 3
\BOOKMARK [2][-]{subsection.2.1}{Formulation}{section.2}% 4
\BOOKMARK [2][-]{subsection.2.2}{Implementation}{section.2}% 5
\BOOKMARK [1][-]{section.3}{Experiments}{}% 6
\BOOKMARK [2][-]{subsection.3.1}{Model validation}{section.3}% 7
\BOOKMARK [2][-]{subsection.3.2}{Emerging factors}{section.3}% 8
\BOOKMARK [2][-]{subsection.3.3}{Realness}{section.3}% 9
\BOOKMARK [3][-]{subsubsection.3.3.1}{Automatic measures}{subsection.3.3}% 10
\BOOKMARK [3][-]{subsubsection.3.3.2}{Human measure}{subsection.3.3}% 11
\BOOKMARK [2][-]{subsection.3.4}{Do our changes causally affect memory?}{section.3}% 12
\BOOKMARK [3][-]{subsubsection.3.4.1}{Emerging factors}{subsection.3.4}% 13
\BOOKMARK [1][-]{section.4}{Other properties}{}% 14
\BOOKMARK [1][-]{section.5}{Conclusion}{}% 15
\BOOKMARK [1][-]{section.6}{Acknowledgments}{}% 16
